3393702f675e624dc991cd1ec83645822c7bf9f2c8a03203a8
b8572a239d07dcd90d8363970eb09509ed24536ebc6ed506cc
fb65966c8380f0d213f6458dac5c51284db1f8d978f78e3414
3ffd081bc5f781f16ebefdd73ecdd3c98cf25798d6d4763697
af1755f64ad7b32b3ea8d50db8b8bb10c5e32bb71e7256b141
4e3812830f85ae2ff1f5b677f1b4113e275caf096164ac243a
6069d61555bb9a7b5e5343d6344f942c042dbb14b0a41818b4
cb1aac03a03b47bb2512b6837b4f23907d4df898b55f17170a
1d84e20d4c84e5e8a2e9a04b485f160a6326fc28e7437f2581
33a5724e194f8f5727a3a3a702ade01df836aa731feba6109b
dd83967c53bbc09782943aa2ecd1caae72d39e95fdde7a6d75
9a1cb28df0b78e42e255929ff7ceba4b2a71b673310e0528b1
0dffccb7723bba21d87ec9fa0fb1b5b7edeaa36768b9fd65c4
cdfcc3a42b542905a4eea79aebab89f7522151cf847f087468
3e93968a2d313baae790479fbd7b6906a2ca50501f28ef9d36
1e2ad15a41a8e3e16eec19d5899bac68f97b3200bb286c3d84
254daeb2f3b35864edfbeb337e4b381b449e9783a976c6148d
20f5f9964d1aca7e26d9c793dd3243a4be120137a949b75b94
c738aaf800ae498d2a22121b83269949e770b8b1cbb21d6807
ea69355346f2b6e7b2831542d9e7e644baacedca59d64bc489
dc9c9c8bafcdd0253c2363b1c2f0d2bfb0e4264a421ab2aa1c
bde4ec0e562869fa6bc614d92c9799658017c92837f0bf7f10
1248c6899122f721f785a120b0419b6012d79a780ad9224ff9
770e1589ac8873751dc3b39ab098b694f6ee93c4cc2337c8a1
c8428487e2a1ac30ecba73f92fc1ba2dc3d144621c9751143d
6c2b9d49a7569c5f1d190dd0499481071f5a55ee6b07a44795
08bcf21c04a0b19a98631159aa3cecfdfef0f8a93aa9e4f30d
9e092205f34abbc8e79d46ee96614f54669bf02b1ac5d6225c
8dbf74b808d01a70dbb62495650c37cc78c730631b5b104411
dff9a0299576cf7f14a306a55b4fa57e6024ee9ec21d0c051c
0a762c5869d85ee0c14679a99241dd886fc6ad36f93274fccc
c430876fe998ef0699da222b2918bb40695c7d832a01c01cc4
79997730137ac84dc6d84a825657d5e90ce8f9bece3b230bcf
5dd8c5fd51e356d0bff1edf418ac7cee1d7881676b259ba74f
458b6952f34e56e06293b5ae191b3a31d12919f535cc23496d
01b06076ed28d87d7874e882c108736818b1543c1e73261d06
89ec7e97e8d392684bd21c97a74be47b6c9884e15eb0ac9196
3275c724d7ae355c7a7ee8e0f1ba28910a225e38ee0dafaac5
c800a2889659834446802c41e9399ae8b63c77522bfb765c48
94a78f5bd2409287512a21fc98cc0e66c43741e14eb6b9773b
