609a201dec7d4b74434597798165e21b04829e3cdaa67a5268
296e24ad69a3ecccea4d084cb5993ffeb1fa48244192cd662b
aa375aa4a3dd1444cdcfdd19932be95bb869884c8deddb9318
9e72412299c52d1911aeef81a083fc7409860dbc925c1976a3
379e09d3b2e415c4731d48e804462d3eeecdedc68dd4fc5bdc
9afa6be5e4b2779baa04e97f52f2f02a5d88fd59c868f8514a
18158f576f0cf0155242794e1e1558f745ece885dea766da4e
da2614ff5a5ac6663473080924470d05d8fb6c63da07f625e2
180fc9e27523b65c899cf80ccc4092c81d0bfc86615f9dce8c
421a8d429589635693c0b21a4a1efa799dc5481939d921d04e
ff9d221a2ba93b39486a8c7aae02c6f5de1d340f8af522a518
f8665afcfee43373472f5a9cd1582039ed977e6d8c482f65ca
c7798f953d69226c64302a84eb519e49132ef2cb624a4bdecc
6fd23a8444efdbef6d154c89bddc950d8aec7ace885c284728
4b0b9f1106f99bf07447655f9e36b7967eec9e295d30ea8f9e
2186b51cbc4bc5e1fd5c8635c899a6c3bb5b45bf54a36e97d2
d8972c82d655188d2ee34acab0c5ebf0aba33b951ec1b173e5
c1f9aa5a9ee6cbadf897b7a255506083be673feeb1cf889d33
52f80669d0b8c34fb7935b51358a4ba57173ee364cbbe5b2b5
b20818a0af9ffe5d8ea5af9e5da261908664b6afd795dceeea
6d7d6fba561cc625405ff598084fdff459b497ae7062ae22e9
948eb1659bc05694c7029d8f4c191fe5943a41ebd96de5731a
557b1e526f300584806df622b4158f249457f7b37253121f64
3b208e50a3a61549b4791cbc04740e23d3b02aa820dc120b84
f594df0d727463ae67c7d263a8408fa4b347d65b607ae04d57
62b13ce48cc629276571c67848a06b0229682233500afeca7a
7cddb4183ec8f2ac45ed2086f6fd275c51833b87219b72f5e0
e9c462dafe55cddebb761adc1f7b35d6dd5ed50e46239fe200
16ef4e4dac97fc38411deca0348dbd12e1f4eee6e50fbb3597
1d2d5389b575a5994c05f4624a7856400cac7ae3413a06feba
8a32aaf6b6465f5eed5f27cb3017c01b90127f6e38fd4ca907
d9d3aabcf547b35488e460787d60f12d88b31205f314d6b792
2c61fc24d338b86822b3068ed196f3ba2a769cea5d22fe6bef
915a0f994966f3301dc244e27fdbee1635bbe756d192dd0be0
932fc3cd137f4f8e8f591f1cec286990335b231169873b4a68
44c0da911a9da6a7ff9064d36712f6d6d40e6def849e81b6e1
7390f679ffba10d2c4888a86f6596f56127b60a9f2fd206945
80a2c1758e7f1999f885051bf027f2ec0dc42913904480a4e0
7ba92cd79fb4fedc192aa3e752f1818e9ec013bfa4c1c9b79c
a3e3d8c0d738864437032d8df9439bf29bfccd480638473d38
