f482ab62726435c45eed2fcd362bf6954c222816da75c24ab3
872f40936c8b494b66b52d3398d80f497ab54fc0e0178d561f
019d16de95cac7373d7437b2ada280ee422c09e88dca33bd09
8211aa26d2e036a0e1d8f3fe42d28e8dfab15efe26a7ffabf0
ec98c024ae35035fb1807b3d58b17db13fcc45ca62bffa50c2
4ea93c49750b6e4757af71341e3280a751c498dcd251470e01
23af6344b6a0fd79fe5256d3794a57fbc403ad4fbd5311abe7
73ed1effd65e907244797d688e359ce71548e447492408ecd9
577ff484d3cab966d72ef8b1a0fbe0a20180785222447e3129
99c24e8f876efe8b7636e6a5b82193539b3e760c022fee0a97
8127df2336a03dde38e3b3d2188078271029a0a65c4f75f42b
c29c1bc95b07d98e6088483089cb565c248e4a77aec1efe166
51691132b4fcdd0e35390dc8837afb958c0d85da9449645ca3
35529564e477f3b3218529a08a1c393367e93752c1059801dc
e61672e6e6e3080c8358cd1f03e4da97fa6feeb222d4f825dd
5a776e68513c3dcde4bee60b5df68db13b7196bfa6d9869565
f46fe3ec383cb360b4488d82c5a130ba424fd7c3a807a7d913
c934385d75d173192e00f37057e081f7b58f8e7e156564585e
72b19165af812824c1b6b9c5f3ba2c8a2b56dc7699e4e06b59
f9c520216cefa67e9e8ba27e47f69f29058eeef3ae3876c8bd
cb636ca2a0e6307b2d92121fb2f332950f3abae6e9e385943b
9cb4017b0e02b673442fa211a13a6be460404893164f1e8bc9
4229e2ce033e694284a4c53289bcd8d188c095fa02f95772d2
788cba9c66aefbdd4e068939a4ab685913f092501fd33171cb
36c5a374b013ceae7e937ed66a68adf5219a350f80b307106e
487a2804fd66e511ef45216892a732068fc04f13173a832ffa
b0836a42d53faaf1b71fe4d865cb2dfa791ef68914dfe0c1ac
c336dd68e4bb2ee1a8e81b1edff3111ac199ea0701d92413f5
a01005e0a30577624a0fc1cc902a1f180d5fbb79ee1f9ceace
da254624edb7622baec177813ed7c512f32b32b12b029f213e
b2842ee6d0214b1875afc77b09c62bf04e68f899928ea71a77
f959bc9bafba681236a769970b5ffbfdd30a8b13e43409412b
009dcfe826713ed602a330060b0e2538af881bdc2fd425a63c
a490156ecaefc01c19b6574cabd6a895497fd0ca6f56a30695
3746796ae561b86706a1bead29b272d4ffeec4a1829b819127
4b15af80a957b6ef5a89ab50d9c0aebae5aae6ef9ad30dbe52
0abe539eb9e2edcee58d28004201285b57373f694e5162ac5d
324982c5de7cd86416f7fc385cfba93a328bc3c4e92b55649a
e20643c45cced61718734ae9681d928f0e63fbc0b22d848e7e
b17543e3a352ce8765525c7e468f35a87cf350a2f72cff5e4f
