f6cd08ced888761443794282c854fd16b04c1287a60247b0da
9990afba9292a577925490675e6ea2f697ba8ebc6615bd3b8b
aa299099240694f68e02f2b40b1bdb37c1b2111d6dd1b63e59
704866a68c5a5944c445f5e306656df3d870a6e6fd5e913ef5
1c96a3b11fc62431f2e1691438d0129943011094a2086cb9b2
1d9d125015d6a0641373ef91ddd4e62481535b20254a022f19
706782e3ed176ee60139c6ffe998418b2dbebb332b1b31092d
68b59cec1cd95de6d00461e5ef522f1c87937711007e1512fd
204751831f5bfc4fd993298f4dc84ea06e693a0b839cecd2f5
415b98503b65c742f60f882894624d842506e950918dd6e3b1
93d61837d22e47794538d9bc20524e2dbb3c0f0d6a2d027e68
85ed23cf03f84b5a6e078b16ed0698e0cbf3af9af9627fac42
2f244808ee8632ae14cffd575d49f21b654484b23407cdebdf
cf3d01a11a59e92cf1880d6f4f65908d1e498fbc5dc0cc071b
bcf1ed1a2c3010547ed1fedc2cbd585617608cd8fb105f462f
43fb787063413186386eca876eb100ac9fd7738ddcc3394578
0ab2e06e43440475c7de51fe450b588795da40be9c6c085f49
f9370a734ea950944c2a40c02e362c7fa595142eb84106fee5
95c8831e29b394704b11b9bdc4759517747cdd69317180e063
9a4c2d1bb8d9d46dafc7f007bf12961a23c1e43d1e51b02278
74055e0fb6e23be997a128a1fc52464bbc335bc926df579740
f3c54278f68857d7120ff41978ee0831a6345ca7da7dd759d9
82ac43af8651820c6196f9459a4ede2583fa15ac5f3f58d460
a31226b076e64eb8ed434e00fa73210dd730170cee10deaab3
e5a65a3d9d6d5b269ae7d0024749c7d52fb3b99717b3930f4e
e8c33347ddbb8880d10f27c37fa968cd1fceecea653b41e6e3
52e79887b252f03d19f0fe71217f88062044ba105348fc1653
cd23ae500bb974f6801c7681ac4ce5f6cd1c9539d5fdb4a2cb
e84dd5d5eb06d63d621d4f73219966a5d0ae85766188d8eea7
c57fd8794b5e233c4c7c6fdfbff04e8e70c240b17db325e5ca
75bca46e59b77cb6a4adb98f8a50853b8de02672bc5021fd32
75fd91bef91620ef4ed82827ddd7b23e330c24d6112eaf54a5
8d0a619e1d75334ec44328a8049324b223e40eed328245d283
473512f84727489fd902309c6e23c8fbcc61f382ff61397805
f8653180e6f4775fa6935cc707877c199c1a3517ab1b5cd710
2e6aa9e0301a2c829356f3d2a45a685807a5c0ef5e3d4f5496
3eaa1d4da4ebd36e6f5956888165312896e63e82af606db54d
7c04eb7b280d156fcb2c7de1d41f21d9476a30a077fd7ec392
bf11d6437d6644a3fd62784a59536588e74482b5bc48fe8f13
019cc97153fc12ca45c373f35fc1d3720f399d0ee257206e7f
